# Blender v2.80 (sub 75) OBJ File: 'something entity.blend'
# www.blender.org
mtllib yardstick.mtl
o Cube_Cube.002
v -3.000000 0.000000 -3.000000
v -3.000000 10.000000 -3.000000
v 0.000000 0.000000 -3.000000
v 0.000000 10.000000 -3.000000
v -3.000000 0.000000 3.000000
v -3.000000 10.000000 3.000000
v 0.000000 0.000000 3.000000
v -0.000000 10.000000 3.000000
v 3.000000 0.000000 -3.000000
v 3.000000 10.000000 -3.000000
v 3.000000 0.000000 3.000000
v 3.000000 10.000000 3.000000
v -0.000000 15.999999 -3.000000
v -0.000000 15.999999 3.000000
v 3.000000 15.999999 -3.000000
v 3.000000 15.999999 3.000000
v -3.000000 17.000000 -3.000000
v -0.000000 17.000000 -3.000000
v 0.000000 17.000000 3.000000
v -3.000000 17.000000 3.000000
v -3.000000 15.999999 -3.000000
v -3.000000 15.999999 3.000000
vt 0.375000 0.000000
vt 0.625000 0.000000
vt 0.625000 0.250000
vt 0.375000 0.250000
vt 0.625000 0.500000
vt 0.375000 0.500000
vt 0.375000 0.500000
vt 0.625000 0.500000
vt 0.625000 0.750000
vt 0.375000 0.750000
vt 0.625000 1.000000
vt 0.375000 1.000000
vt 0.125000 0.500000
vt 0.125000 0.750000
vt 0.375000 0.250000
vt 0.625000 0.250000
vt 0.125000 0.500000
vt 0.875000 0.500000
vt 0.625000 0.500000
vt 0.625000 0.500000
vt 0.875000 0.500000
vt 0.625000 0.250000
vt 0.625000 0.500000
vt 0.875000 0.500000
vt 0.875000 0.750000
vt 0.625000 0.750000
vt 0.625000 0.500000
vt 0.875000 0.500000
vt 0.000000 0.000000
vt 0.000000 0.000000
vt 0.000000 0.000000
vt 0.000000 0.000000
vn 0.0000 0.0000 -1.0000
vn 0.0000 0.0000 1.0000
vn -1.0000 -0.0000 -0.0000
vn 0.0000 -1.0000 0.0000
vn 1.0000 -0.0000 -0.0000
vn 0.0000 1.0000 0.0000
usemtl None
s off
f 1/1/1 2/2/1 4/3/1 3/4/1
f 8/5/2 7/6/2 11/7/2 12/8/2
f 7/6/2 8/5/2 6/9/2 5/10/2
f 5/10/3 6/9/3 2/11/3 1/12/3
f 3/13/4 7/6/4 5/10/4 1/14/4
f 9/15/5 10/16/5 12/8/5 11/7/5
f 7/6/4 3/13/4 9/17/4 11/7/4
f 3/4/1 4/3/1 10/16/1 9/15/1
f 13/18/6 14/19/6 16/20/6 15/21/6
f 12/8/5 10/16/5 15/22/5 16/20/5
f 19/23/6 18/24/6 17/25/6 20/26/6
f 22/27/2 14/19/2 19/23/2 20/26/2
f 4/3/1 13/18/1 15/21/1 10/16/1
f 20/26/3 17/25/3 21/28/3 22/27/3
f 14/19/5 13/18/5 18/24/5 19/23/5
f 2/2/1 21/28/1 13/18/1 4/3/1
f 6/29/3 22/30/3 21/31/3 2/32/3
f 17/25/1 18/24/1 13/18/1 21/28/1
f 14/19/2 22/27/2 6/29/2 8/5/2
f 14/19/2 8/5/2 12/8/2 16/20/2
